{
  "Website": {
    "url": "http://mylisting.inspireui.com",
     "consumerKey": "ck_0e7d6d841d5d0c952e92d827abb529674f25f8f5",
     "consumerSecret": "cs_7811cbea91c2ff24999627fc1d61a1371d6a918f"
  },
  "Theme": "myListing",
  "MainColor": {
    "tabbarTint": "#00B2BC",
    "tabbarColor": "#D5D8DE",
    "mainColorTheme": "#00B2BC",
    "tabbar": "#fff"
  }
}